object,field,data_type
Contact,Name,String
Contact,Age,Integer
Contact,BirthDate,Date
Contact,Address,String
Contact,PostalCode,String
Contact,City,String
Contact,Country,String
Contact,BankAccounts,List<myapi_BankAccount>
Contact,Account,myapi_Account
BankAccount,IBAN,String
BankAccount,BIC,String
Account,Name,String
Account,Phone,String
Account,Email,String
Account,NetWorth,Decimal
Account,Contacts,myapi_Contact[]
